[
    {
        "value": "creature",
        "text": "créature",
        "type_list": [
            "creature",
            "artifact creature",
            "legendary creature",
            "enchantment creature",
            "land creature",
            "legendary enchantment creature",
            "snow creature",
            "legendary artifact creature",
            "snow artifact creature",
            "legendary snow creature"
        ]
    },
    {
        "value": "planeswalker",
        "text": "planeswalker",
        "type_list": [
            "legendary planeswalker",
            "planeswalker"
        ]
    },
    {
        "value": "sorcery",
        "text": "rituel",
        "type_list": [
            "sorcery",
            "legendary sorcery",
            "snow sorcery",
            "tribal sorcery"
        ]
    },
    {
        "value": "enchantment",
        "text": "enchantement",
        "type_list": [
            "enchantment",
            "enchantment creature",
            "legendary enchantment artifact",
            "legendary enchantment",
            "legendary enchantment creature",
            "world enchantment",
            "snow enchantment",
            "tribal enchantment",
            "legendary snow enchantment"
        ]
    },
    {
        "value": "instant",
        "text": "éphémère",
        "type_list": [
            "snow instant",
            "instant",
            "tribal instant"
        ]
    },
    {
        "value": "artifact",
        "text": "artefact",
        "type_list": [
            "artifact",
            "legendary enchantment artifact",
            "legendary artifact",
            "tribal artifact",
            "snow artifact"
        ]
    },
    {
        "value": "land",
        "text": "terrain",
        "type_list": [
            "basic land",
            "land",
            "legendary land",
            "land creature",
            "legendary snow land",
            "basic snow land",
            "snow land",
            "artifact land",
            "enchantment land"
        ]
    },
    {
        "value": "phenomenon",
        "text": "phénomène",
        "type_list": [
            "phenomenon"
        ]
    },
    {
        "value": "conspiracy",
        "text": "conspiration",
        "type_list": [
            "conspiracy"
        ]
    },
    {
        "value": "plane",
        "text": "plan",
        "type_list": [
            "plane"
        ]
    }
]